PWM/sim/simlog.txt

Warning-[LNX_OS_VERUN] Unsupported Linux version
  Linux version 'Fedora release 29 (Twenty Nine)' is not supported on 'x86_64'
  officially, assuming linux compatibility by default. Set VCS_ARCH_OVERRIDE 
  to linux or suse32 to override.
  Please refer to release notes for information on supported platforms.


Warning-[LINX_KRNL] Unsupported Linux kernel
  Linux kernel '5.3.11-100.fc29.x86_64' is not supported.
  Supported versions are 2.4* or 2.6*.

                         Chronologic VCS (TM)
           Version I-2014.03-2 -- Mon May 11 20:44:28 2020
               Copyright (c) 1991-2014 by Synopsys Inc.
                         ALL RIGHTS RESERVED

This program is proprietary and confidential information of Synopsys Inc.
and may be used and disclosed only as authorized in a license agreement
controlling such use and disclosure.


Warning-[UNK_COMP_ARG] Unknown compile time plus argument used
  Unknown compile time plus argument 'ntb_random_seed=value' is ignored.

 + use `+plusarg_save' to bind in runtime plusargs;
 + use `+plusarg_ignore' to suppress this message.
The design hasn't changed and need not be recompiled. 
If you really want to, delete file simv.daidir/.vcs.timestamp and
run VCS again.


Note-[RT_BS] Larger stack needed
  Note: Bumping stack limit from 8192 to 8194 Kbytes.

Chronologic VCS simulator copyright 1991-2014
Contains Synopsys proprietary information.
Compiler version I-2014.03-2; Runtime version I-2014.03-2;  May 11 20:44 2020
----------------------------------------------------------------
UVM-1.1d.VCS
(C) 2007-2013 Mentor Graphics Corporation
(C) 2007-2013 Cadence Design Systems, Inc.
(C) 2006-2013 Synopsys, Inc.
(C) 2011-2013 Cypress Semiconductor Corp.
----------------------------------------------------------------

  ***********       IMPORTANT RELEASE NOTES         ************

  You are using a version of the UVM library that has been compiled
  with `UVM_NO_DEPRECATED undefined.
  See http://www.eda.org/svdb/view.php?id=3313 for more details.

  You are using a version of the UVM library that has been compiled
  with `UVM_OBJECT_MUST_HAVE_CONSTRUCTOR undefined.
  See http://www.eda.org/svdb/view.php?id=3770 for more details.

      (Specify +UVM_NO_RELNOTES to turn off this notice)

UVM_INFO @ 0: reporter [RNTST] Running test per_test...
UVM_INFO ./../test/per_test.sv(18) @ 0: uvm_test_top [REG_TEST] This is Build Phase - period test
UVM_INFO ./../uvc/smc_env.sv(16) @ 0: uvm_test_top.env [SMC_ENV] This is Build Phase - FIFO env
UVM_INFO ./../uvc/smc_agent.sv(27) @ 0: uvm_test_top.env.agt [SMC_AGENT] This is Build Phase - smc agent
UVM_INFO ./../uvc/smc_driver.sv(13) @ 0: uvm_test_top.env.agt.drv [SMC_DRIVER] This is Build Phase - smc wr driver
UVM_INFO ./../uvc/smc_monitor.sv(121) @ 0: uvm_test_top.env.agt.e_mon [EDGE_MON] This is Build Phase - smc wr monitor
UVM_INFO ./../uvc/smc_monitor.sv(14) @ 0: uvm_test_top.env.agt.r_mon [REQ_MON] This is Build Phase - requests monitor
UVM_INFO ./../uvc/smc_monitor.sv(63) @ 0: uvm_test_top.env.agt.rsp_mon [RESP_MON] This is Build Phase - smc wr monitor
UVM_INFO ./../uvc/smc_scoreboard.sv(20) @ 0: uvm_test_top.env.agt.sb1 [REG_SB] This is Build Phase - reg scoreboard
UVM_INFO ./../uvc/smc_scoreboard.sv(130) @ 0: uvm_test_top.env.agt.sb2 [PER_SB] This is Build Phase - per scoreboard
UVM_INFO ./../uvc/smc_driver.sv(18) @ 0: uvm_test_top.env.agt.drv [SMC_DRIVER] This is Connect Phase - smc wr driver
UVM_INFO ./../uvc/smc_monitor.sv(127) @ 0: uvm_test_top.env.agt.e_mon [EDGE_MON] This is Connect Phase - smc wr monitor
UVM_INFO ./../uvc/smc_monitor.sv(20) @ 0: uvm_test_top.env.agt.r_mon [REQ_MON] This is Connect Phase - requests monitor
UVM_INFO ./../uvc/smc_monitor.sv(71) @ 0: uvm_test_top.env.agt.rsp_mon [RESP_MON] This is Connect Phase - smc wr monitor
UVM_INFO ./../uvc/smc_scoreboard.sv(29) @ 0: uvm_test_top.env.agt.sb1 [REG_SB] This is Connect Phase - reg scoreboard
UVM_INFO ./../uvc/smc_scoreboard.sv(142) @ 0: uvm_test_top.env.agt.sb2 [PER_SB] This is Connect Phase - PER scoreboard
UVM_INFO ./../uvc/smc_agent.sv(36) @ 0: uvm_test_top.env.agt [SMC_AGENT] This is Connect Phase - smc agent
UVM_INFO ./../uvc/smc_env.sv(21) @ 0: uvm_test_top.env [SMC_ENV] This is build phase - FIfo env
UVM_INFO ./../test/per_test.sv(26) @ 0: uvm_test_top [REG_TEST] This is Connect Phase - period test
UVM_INFO ./../test/per_test.sv(32) @ 0: uvm_test_top [REG_TEST] This is Run Phase - Period test
UVM_INFO ./../uvc/smc_driver.sv(28) @ 10000: uvm_test_top.env.agt.drv [SMC_DRIVER] This is Run Phase - smc wr driver
UVM_INFO ./../uvc/smc_monitor.sv(137) @ 10000: uvm_test_top.env.agt.e_mon [EDGE_MON] This is Run Phase - smc wr monitor
UVM_INFO ./../uvc/smc_monitor.sv(30) @ 10000: uvm_test_top.env.agt.r_mon [REQ_MON] This is Run Phase - requests monitor
UVM_INFO ./../uvc/smc_monitor.sv(81) @ 10000: uvm_test_top.env.agt.rsp_mon [RESP_MON] This is Run Phase - smc wr monitor
UVM_INFO ./../uvc/smc_scoreboard.sv(35) @ 10000: uvm_test_top.env.agt.sb1 [REG_SB] This is Run Phase - reg scoreboard
UVM_INFO ./../uvc/smc_scoreboard.sv(152) @ 10000: uvm_test_top.env.agt.sb2 [PER_SB] This is Run Phase - PER scoreboard
UVM_INFO ./../uvc/smc_agent.sv(42) @ 10000: uvm_test_top.env.agt [SMC_AGENT] This is Run Phase - smc agent
UVM_INFO ./../uvc/smc_env.sv(28) @ 10000: uvm_test_top.env [SMC_ENV] This is Run Phase - FIFO env
UVM_INFO ./../seq/per_seq.sv(81) @ 10000: uvm_test_top.env.agt.seqr@@seq [body] Starting period sequence
UVM_INFO ./../seq/per_seq.sv(53) @ 201000: uvm_test_top.env.agt.seqr@@seq [do_init] PER=775  MC_CTL0=0001 MC_CTL1=0035
UVM_ERROR ./../uvc/smc_scoreboard.sv(217) @ 330000: uvm_test_top.env.agt.sb2 [PER_SB] All edges didn't happen where expected as per alignment accounting for delay al_cnt:0000000000000000 ap_cnt=000000000000000e align:1 channel:           0
UVM_ERROR ./../uvc/smc_scoreboard.sv(217) @ 390000: uvm_test_top.env.agt.sb2 [PER_SB] All edges didn't happen where expected as per alignment accounting for delay al_cnt:0000000000000000 ap_cnt=000000000000000e align:0 channel:          11
UVM_ERROR ./../uvc/smc_scoreboard.sv(217) @ 390000: uvm_test_top.env.agt.sb2 [PER_SB] All edges didn't happen where expected as per alignment accounting for delay al_cnt:0000000000000000 ap_cnt=000000000000000e align:0 channel:          10
UVM_ERROR ./../uvc/smc_scoreboard.sv(217) @ 390000: uvm_test_top.env.agt.sb2 [PER_SB] All edges didn't happen where expected as per alignment accounting for delay al_cnt:0000000000000000 ap_cnt=000000000000000e align:0 channel:           9
UVM_ERROR ./../uvc/smc_scoreboard.sv(217) @ 390000: uvm_test_top.env.agt.sb2 [PER_SB] All edges didn't happen where expected as per alignment accounting for delay al_cnt:0000000000000000 ap_cnt=000000000000000e align:0 channel:           8
UVM_ERROR ./../uvc/smc_scoreboard.sv(217) @ 390000: uvm_test_top.env.agt.sb2 [PER_SB] All edges didn't happen where expected as per alignment accounting for delay al_cnt:0000000000000000 ap_cnt=000000000000000e align:0 channel:           7
UVM_ERROR ./../uvc/smc_scoreboard.sv(217) @ 390000: uvm_test_top.env.agt.sb2 [PER_SB] All edges didn't happen where expected as per alignment accounting for delay al_cnt:0000000000000000 ap_cnt=000000000000000e align:0 channel:           6
UVM_ERROR ./../uvc/smc_scoreboard.sv(217) @ 390000: uvm_test_top.env.agt.sb2 [PER_SB] All edges didn't happen where expected as per alignment accounting for delay al_cnt:0000000000000000 ap_cnt=000000000000000e align:0 channel:           5
UVM_ERROR ./../uvc/smc_scoreboard.sv(217) @ 390000: uvm_test_top.env.agt.sb2 [PER_SB] All edges didn't happen where expected as per alignment accounting for delay al_cnt:0000000000000000 ap_cnt=000000000000000e align:0 channel:           4
UVM_ERROR ./../uvc/smc_scoreboard.sv(217) @ 390000: uvm_test_top.env.agt.sb2 [PER_SB] All edges didn't happen where expected as per alignment accounting for delay al_cnt:0000000000000000 ap_cnt=000000000000000e align:0 channel:           3
UVM_ERROR ./../uvc/smc_scoreboard.sv(217) @ 390000: uvm_test_top.env.agt.sb2 [PER_SB] All edges didn't happen where expected as per alignment accounting for delay al_cnt:0000000000000000 ap_cnt=000000000000000e align:0 channel:           2
UVM_ERROR ./../uvc/smc_scoreboard.sv(217) @ 450000: uvm_test_top.env.agt.sb2 [PER_SB] All edges didn't happen where expected as per alignment accounting for delay al_cnt:0000000000000000 ap_cnt=0000000000000011 align:1 channel:           1
UVM_ERROR ./../uvc/smc_scoreboard.sv(217) @ 450000: uvm_test_top.env.agt.sb2 [PER_SB] All edges didn't happen where expected as per alignment accounting for delay al_cnt:0000000000000000 ap_cnt=0000000000000014 align:1 channel:           0
UVM_ERROR ./../uvc/smc_scoreboard.sv(217) @ 510000: uvm_test_top.env.agt.sb2 [PER_SB] All edges didn't happen where expected as per alignment accounting for delay al_cnt:0000000000000000 ap_cnt=0000000000000014 align:0 channel:          11
UVM_ERROR ./../uvc/smc_scoreboard.sv(217) @ 510000: uvm_test_top.env.agt.sb2 [PER_SB] All edges didn't happen where expected as per alignment accounting for delay al_cnt:0000000000000000 ap_cnt=0000000000000014 align:0 channel:          10
UVM_ERROR ./../uvc/smc_scoreboard.sv(217) @ 510000: uvm_test_top.env.agt.sb2 [PER_SB] All edges didn't happen where expected as per alignment accounting for delay al_cnt:0000000000000000 ap_cnt=0000000000000014 align:0 channel:           9
UVM_ERROR ./../uvc/smc_scoreboard.sv(217) @ 510000: uvm_test_top.env.agt.sb2 [PER_SB] All edges didn't happen where expected as per alignment accounting for delay al_cnt:0000000000000000 ap_cnt=0000000000000014 align:0 channel:           8
UVM_ERROR ./../uvc/smc_scoreboard.sv(217) @ 510000: uvm_test_top.env.agt.sb2 [PER_SB] All edges didn't happen where expected as per alignment accounting for delay al_cnt:0000000000000000 ap_cnt=0000000000000014 align:0 channel:           7
UVM_ERROR ./../uvc/smc_scoreboard.sv(217) @ 510000: uvm_test_top.env.agt.sb2 [PER_SB] All edges didn't happen where expected as per alignment accounting for delay al_cnt:0000000000000000 ap_cnt=0000000000000014 align:0 channel:           6
UVM_ERROR ./../uvc/smc_scoreboard.sv(217) @ 510000: uvm_test_top.env.agt.sb2 [PER_SB] All edges didn't happen where expected as per alignment accounting for delay al_cnt:0000000000000000 ap_cnt=0000000000000014 align:0 channel:           5
UVM_ERROR ./../uvc/smc_scoreboard.sv(217) @ 510000: uvm_test_top.env.agt.sb2 [PER_SB] All edges didn't happen where expected as per alignment accounting for delay al_cnt:0000000000000000 ap_cnt=0000000000000014 align:0 channel:           4
UVM_ERROR ./../uvc/smc_scoreboard.sv(217) @ 510000: uvm_test_top.env.agt.sb2 [PER_SB] All edges didn't happen where expected as per alignment accounting for delay al_cnt:0000000000000000 ap_cnt=0000000000000014 align:0 channel:           3
UVM_ERROR ./../uvc/smc_scoreboard.sv(217) @ 570000: uvm_test_top.env.agt.sb2 [PER_SB] All edges didn't happen where expected as per alignment accounting for delay al_cnt:0000000000000000 ap_cnt=0000000000000017 align:1 channel:           2
UVM_ERROR ./../uvc/smc_scoreboard.sv(217) @ 570000: uvm_test_top.env.agt.sb2 [PER_SB] All edges didn't happen where expected as per alignment accounting for delay al_cnt:0000000000000000 ap_cnt=0000000000000017 align:1 channel:           1
UVM_ERROR ./../uvc/smc_scoreboard.sv(217) @ 570000: uvm_test_top.env.agt.sb2 [PER_SB] All edges didn't happen where expected as per alignment accounting for delay al_cnt:0000000000000000 ap_cnt=000000000000001a align:1 channel:           0
UVM_ERROR ./../uvc/smc_scoreboard.sv(217) @ 630000: uvm_test_top.env.agt.sb2 [PER_SB] All edges didn't happen where expected as per alignment accounting for delay al_cnt:0000000000000000 ap_cnt=000000000000001a align:0 channel:          11
UVM_ERROR ./../uvc/smc_scoreboard.sv(217) @ 630000: uvm_test_top.env.agt.sb2 [PER_SB] All edges didn't happen where expected as per alignment accounting for delay al_cnt:0000000000000000 ap_cnt=000000000000001a align:0 channel:          10
UVM_ERROR ./../uvc/smc_scoreboard.sv(217) @ 630000: uvm_test_top.env.agt.sb2 [PER_SB] All edges didn't happen where expected as per alignment accounting for delay al_cnt:0000000000000000 ap_cnt=000000000000001a align:0 channel:           9
UVM_ERROR ./../uvc/smc_scoreboard.sv(217) @ 630000: uvm_test_top.env.agt.sb2 [PER_SB] All edges didn't happen where expected as per alignment accounting for delay al_cnt:0000000000000000 ap_cnt=000000000000001a align:0 channel:           8
UVM_ERROR ./../uvc/smc_scoreboard.sv(217) @ 630000: uvm_test_top.env.agt.sb2 [PER_SB] All edges didn't happen where expected as per alignment accounting for delay al_cnt:0000000000000000 ap_cnt=000000000000001a align:0 channel:           7
UVM_ERROR ./../uvc/smc_scoreboard.sv(217) @ 630000: uvm_test_top.env.agt.sb2 [PER_SB] All edges didn't happen where expected as per alignment accounting for delay al_cnt:0000000000000000 ap_cnt=000000000000001a align:0 channel:           6
UVM_ERROR ./../uvc/smc_scoreboard.sv(217) @ 630000: uvm_test_top.env.agt.sb2 [PER_SB] All edges didn't happen where expected as per alignment accounting for delay al_cnt:0000000000000000 ap_cnt=000000000000001a align:0 channel:           5
UVM_ERROR ./../uvc/smc_scoreboard.sv(217) @ 630000: uvm_test_top.env.agt.sb2 [PER_SB] All edges didn't happen where expected as per alignment accounting for delay al_cnt:0000000000000000 ap_cnt=000000000000001a align:0 channel:           4
UVM_ERROR ./../uvc/smc_scoreboard.sv(217) @ 630000: uvm_test_top.env.agt.sb2 [PER_SB] All edges didn't happen where expected as per alignment accounting for delay al_cnt:0000000000000000 ap_cnt=000000000000001a align:2 channel:           3
UVM_ERROR ./../uvc/smc_scoreboard.sv(217) @ 630000: uvm_test_top.env.agt.sb2 [PER_SB] All edges didn't happen where expected as per alignment accounting for delay al_cnt:0000000000000000 ap_cnt=000000000000001a align:1 channel:           2
UVM_ERROR ./../uvc/smc_scoreboard.sv(217) @ 630000: uvm_test_top.env.agt.sb2 [PER_SB] All edges didn't happen where expected as per alignment accounting for delay al_cnt:0000000000000000 ap_cnt=000000000000001a align:1 channel:           1
UVM_ERROR ./../uvc/smc_scoreboard.sv(217) @ 630000: uvm_test_top.env.agt.sb2 [PER_SB] All edges didn't happen where expected as per alignment accounting for delay al_cnt:0000000000000000 ap_cnt=000000000000001d align:1 channel:           0
UVM_ERROR ./../uvc/smc_scoreboard.sv(217) @ 671000: uvm_test_top.env.agt.sb2 [PER_SB] All edges didn't happen where expected as per alignment accounting for delay al_cnt:0000000000000000 ap_cnt=000000000000001d align:0 channel:          11
UVM_ERROR ./../uvc/smc_scoreboard.sv(217) @ 671000: uvm_test_top.env.agt.sb2 [PER_SB] All edges didn't happen where expected as per alignment accounting for delay al_cnt:0000000000000000 ap_cnt=000000000000001d align:0 channel:          10
UVM_ERROR ./../uvc/smc_scoreboard.sv(217) @ 671000: uvm_test_top.env.agt.sb2 [PER_SB] All edges didn't happen where expected as per alignment accounting for delay al_cnt:0000000000000000 ap_cnt=000000000000001d align:0 channel:           9
UVM_ERROR ./../uvc/smc_scoreboard.sv(217) @ 671000: uvm_test_top.env.agt.sb2 [PER_SB] All edges didn't happen where expected as per alignment accounting for delay al_cnt:0000000000000000 ap_cnt=000000000000001d align:0 channel:           8
UVM_ERROR ./../uvc/smc_scoreboard.sv(217) @ 671000: uvm_test_top.env.agt.sb2 [PER_SB] All edges didn't happen where expected as per alignment accounting for delay al_cnt:0000000000000000 ap_cnt=000000000000001d align:0 channel:           7
UVM_ERROR ./../uvc/smc_scoreboard.sv(217) @ 671000: uvm_test_top.env.agt.sb2 [PER_SB] All edges didn't happen where expected as per alignment accounting for delay al_cnt:0000000000000000 ap_cnt=000000000000001d align:0 channel:           6
UVM_ERROR ./../uvc/smc_scoreboard.sv(217) @ 671000: uvm_test_top.env.agt.sb2 [PER_SB] All edges didn't happen where expected as per alignment accounting for delay al_cnt:0000000000000000 ap_cnt=000000000000001d align:0 channel:           5
UVM_ERROR ./../uvc/smc_scoreboard.sv(217) @ 671000: uvm_test_top.env.agt.sb2 [PER_SB] All edges didn't happen where expected as per alignment accounting for delay al_cnt:0000000000000000 ap_cnt=000000000000001d align:0 channel:           4
UVM_INFO ./../seq/per_seq.sv(29) @ 1641000: uvm_test_top.env.agt.seqr@@seq [body] Programming Period=7e3  Per_scale=1
UVM_INFO ./../seq/per_seq.sv(36) @ 1821000: uvm_test_top.env.agt.seqr@@seq [body] Programming addr: 00000013 
UVM_INFO ./../seq/per_seq.sv(39) @ 1881000: uvm_test_top.env.agt.seqr@@seq [body] Programming Align=2  Addr=00000022 DutyCycle=1930  Channel=          0
UVM_INFO ./../seq/per_seq.sv(36) @ 1941000: uvm_test_top.env.agt.seqr@@seq [body] Programming addr: 00000012 
UVM_INFO ./../seq/per_seq.sv(39) @ 2001000: uvm_test_top.env.agt.seqr@@seq [body] Programming Align=2  Addr=00000020 DutyCycle=1314  Channel=          1
UVM_INFO ./../seq/per_seq.sv(36) @ 2061000: uvm_test_top.env.agt.seqr@@seq [body] Programming addr: 00000011 
UVM_INFO ./../seq/per_seq.sv(39) @ 2121000: uvm_test_top.env.agt.seqr@@seq [body] Programming Align=2  Addr=00000026 DutyCycle=1899  Channel=          2
UVM_INFO ./../seq/per_seq.sv(36) @ 2181000: uvm_test_top.env.agt.seqr@@seq [body] Programming addr: 00000010 
UVM_INFO ./../seq/per_seq.sv(39) @ 2241000: uvm_test_top.env.agt.seqr@@seq [body] Programming Align=1  Addr=00000024 DutyCycle= 154  Channel=          3
UVM_INFO ./../seq/per_seq.sv(36) @ 2301000: uvm_test_top.env.agt.seqr@@seq [body] Programming addr: 00000017 
UVM_INFO ./../seq/per_seq.sv(39) @ 2361000: uvm_test_top.env.agt.seqr@@seq [body] Programming Align=1  Addr=0000002a DutyCycle= 121  Channel=          4
UVM_INFO ./../seq/per_seq.sv(36) @ 2421000: uvm_test_top.env.agt.seqr@@seq [body] Programming addr: 00000016 
UVM_INFO ./../seq/per_seq.sv(39) @ 2481000: uvm_test_top.env.agt.seqr@@seq [body] Programming Align=2  Addr=00000028 DutyCycle=1206  Channel=          5
UVM_INFO ./../seq/per_seq.sv(36) @ 2541000: uvm_test_top.env.agt.seqr@@seq [body] Programming addr: 00000015 
UVM_INFO ./../seq/per_seq.sv(39) @ 2601000: uvm_test_top.env.agt.seqr@@seq [body] Programming Align=1  Addr=0000002e DutyCycle=1726  Channel=          6
UVM_INFO ./../seq/per_seq.sv(36) @ 2661000: uvm_test_top.env.agt.seqr@@seq [body] Programming addr: 00000014 
UVM_INFO ./../seq/per_seq.sv(39) @ 2721000: uvm_test_top.env.agt.seqr@@seq [body] Programming Align=1  Addr=0000002c DutyCycle=1621  Channel=          7
UVM_INFO ./../seq/per_seq.sv(36) @ 2781000: uvm_test_top.env.agt.seqr@@seq [body] Programming addr: 0000001b 
UVM_INFO ./../seq/per_seq.sv(39) @ 2841000: uvm_test_top.env.agt.seqr@@seq [body] Programming Align=1  Addr=00000032 DutyCycle=1394  Channel=          8
UVM_INFO ./../seq/per_seq.sv(36) @ 2901000: uvm_test_top.env.agt.seqr@@seq [body] Programming addr: 0000001a 
UVM_INFO ./../seq/per_seq.sv(39) @ 2961000: uvm_test_top.env.agt.seqr@@seq [body] Programming Align=1  Addr=00000030 DutyCycle=1890  Channel=          9
UVM_INFO ./../seq/per_seq.sv(36) @ 3021000: uvm_test_top.env.agt.seqr@@seq [body] Programming addr: 00000019 
UVM_INFO ./../seq/per_seq.sv(39) @ 3081000: uvm_test_top.env.agt.seqr@@seq [body] Programming Align=2  Addr=00000036 DutyCycle=  69  Channel=         10
UVM_INFO ./../seq/per_seq.sv(36) @ 3141000: uvm_test_top.env.agt.seqr@@seq [body] Programming addr: 00000018 
UVM_INFO ./../seq/per_seq.sv(39) @ 3201000: uvm_test_top.env.agt.seqr@@seq [body] Programming Align=1  Addr=00000034 DutyCycle= 789  Channel=         11
UVM_INFO ./../seq/per_seq.sv(29) @ 205101000: uvm_test_top.env.agt.seqr@@seq [body] Programming Period=7c7  Per_scale=2
UVM_INFO ./../seq/per_seq.sv(36) @ 205261000: uvm_test_top.env.agt.seqr@@seq [body] Programming addr: 00000013 
UVM_INFO ./../seq/per_seq.sv(39) @ 205321000: uvm_test_top.env.agt.seqr@@seq [body] Programming Align=2  Addr=00000022 DutyCycle= 114  Channel=          0
UVM_INFO ./../seq/per_seq.sv(36) @ 205381000: uvm_test_top.env.agt.seqr@@seq [body] Programming addr: 00000012 
UVM_INFO ./../seq/per_seq.sv(39) @ 205441000: uvm_test_top.env.agt.seqr@@seq [body] Programming Align=2  Addr=00000020 DutyCycle= 795  Channel=          1
UVM_INFO ./../seq/per_seq.sv(36) @ 205501000: uvm_test_top.env.agt.seqr@@seq [body] Programming addr: 00000011 
UVM_INFO ./../seq/per_seq.sv(39) @ 205561000: uvm_test_top.env.agt.seqr@@seq [body] Programming Align=1  Addr=00000026 DutyCycle= 997  Channel=          2
UVM_INFO ./../seq/per_seq.sv(36) @ 205621000: uvm_test_top.env.agt.seqr@@seq [body] Programming addr: 00000010 
UVM_INFO ./../seq/per_seq.sv(39) @ 205681000: uvm_test_top.env.agt.seqr@@seq [body] Programming Align=2  Addr=00000024 DutyCycle=1480  Channel=          3
UVM_INFO ./../seq/per_seq.sv(36) @ 205741000: uvm_test_top.env.agt.seqr@@seq [body] Programming addr: 00000017 
UVM_INFO ./../seq/per_seq.sv(39) @ 205801000: uvm_test_top.env.agt.seqr@@seq [body] Programming Align=1  Addr=0000002a DutyCycle=1404  Channel=          4
UVM_INFO ./../seq/per_seq.sv(36) @ 205861000: uvm_test_top.env.agt.seqr@@seq [body] Programming addr: 00000016 
UVM_INFO ./../seq/per_seq.sv(39) @ 205921000: uvm_test_top.env.agt.seqr@@seq [body] Programming Align=2  Addr=00000028 DutyCycle=1825  Channel=          5
UVM_INFO ./../seq/per_seq.sv(36) @ 205981000: uvm_test_top.env.agt.seqr@@seq [body] Programming addr: 00000015 
UVM_INFO ./../seq/per_seq.sv(39) @ 206041000: uvm_test_top.env.agt.seqr@@seq [body] Programming Align=2  Addr=0000002e DutyCycle= 402  Channel=          6
UVM_INFO ./../seq/per_seq.sv(36) @ 206101000: uvm_test_top.env.agt.seqr@@seq [body] Programming addr: 00000014 
UVM_INFO ./../seq/per_seq.sv(39) @ 206161000: uvm_test_top.env.agt.seqr@@seq [body] Programming Align=2  Addr=0000002c DutyCycle=1936  Channel=          7
UVM_INFO ./../seq/per_seq.sv(36) @ 206221000: uvm_test_top.env.agt.seqr@@seq [body] Programming addr: 0000001b 
UVM_INFO ./../seq/per_seq.sv(39) @ 206281000: uvm_test_top.env.agt.seqr@@seq [body] Programming Align=1  Addr=00000032 DutyCycle= 219  Channel=          8
UVM_INFO ./../seq/per_seq.sv(36) @ 206341000: uvm_test_top.env.agt.seqr@@seq [body] Programming addr: 0000001a 
UVM_INFO ./../seq/per_seq.sv(39) @ 206401000: uvm_test_top.env.agt.seqr@@seq [body] Programming Align=1  Addr=00000030 DutyCycle= 601  Channel=          9
UVM_INFO ./../seq/per_seq.sv(36) @ 206461000: uvm_test_top.env.agt.seqr@@seq [body] Programming addr: 00000019 
UVM_INFO ./../seq/per_seq.sv(39) @ 206521000: uvm_test_top.env.agt.seqr@@seq [body] Programming Align=2  Addr=00000036 DutyCycle= 526  Channel=         10
UVM_INFO ./../seq/per_seq.sv(36) @ 206581000: uvm_test_top.env.agt.seqr@@seq [body] Programming addr: 00000018 
UVM_INFO ./../seq/per_seq.sv(39) @ 206641000: uvm_test_top.env.agt.seqr@@seq [body] Programming Align=2  Addr=00000034 DutyCycle=1020  Channel=         11
UVM_INFO ./../seq/per_seq.sv(29) @ 405741000: uvm_test_top.env.agt.seqr@@seq [body] Programming Period=7b4  Per_scale=3
UVM_INFO ./../seq/per_seq.sv(36) @ 405901000: uvm_test_top.env.agt.seqr@@seq [body] Programming addr: 00000013 
UVM_INFO ./../seq/per_seq.sv(39) @ 405961000: uvm_test_top.env.agt.seqr@@seq [body] Programming Align=2  Addr=00000022 DutyCycle=  31  Channel=          0
UVM_INFO ./../seq/per_seq.sv(36) @ 406021000: uvm_test_top.env.agt.seqr@@seq [body] Programming addr: 00000012 
UVM_INFO ./../seq/per_seq.sv(39) @ 406081000: uvm_test_top.env.agt.seqr@@seq [body] Programming Align=1  Addr=00000020 DutyCycle=1140  Channel=          1
UVM_INFO ./../seq/per_seq.sv(36) @ 406141000: uvm_test_top.env.agt.seqr@@seq [body] Programming addr: 00000011 
UVM_INFO ./../seq/per_seq.sv(39) @ 406201000: uvm_test_top.env.agt.seqr@@seq [body] Programming Align=1  Addr=00000026 DutyCycle=1642  Channel=          2
UVM_INFO ./../seq/per_seq.sv(36) @ 406261000: uvm_test_top.env.agt.seqr@@seq [body] Programming addr: 00000010 
UVM_INFO ./../seq/per_seq.sv(39) @ 406321000: uvm_test_top.env.agt.seqr@@seq [body] Programming Align=2  Addr=00000024 DutyCycle=1869  Channel=          3
UVM_INFO ./../seq/per_seq.sv(36) @ 406381000: uvm_test_top.env.agt.seqr@@seq [body] Programming addr: 00000017 
UVM_INFO ./../seq/per_seq.sv(39) @ 406441000: uvm_test_top.env.agt.seqr@@seq [body] Programming Align=2  Addr=0000002a DutyCycle=1026  Channel=          4
UVM_INFO ./../seq/per_seq.sv(36) @ 406501000: uvm_test_top.env.agt.seqr@@seq [body] Programming addr: 00000016 
UVM_INFO ./../seq/per_seq.sv(39) @ 406561000: uvm_test_top.env.agt.seqr@@seq [body] Programming Align=2  Addr=00000028 DutyCycle= 354  Channel=          5
UVM_INFO ./../seq/per_seq.sv(36) @ 406621000: uvm_test_top.env.agt.seqr@@seq [body] Programming addr: 00000015 
UVM_INFO ./../seq/per_seq.sv(39) @ 406681000: uvm_test_top.env.agt.seqr@@seq [body] Programming Align=1  Addr=0000002e DutyCycle=  98  Channel=          6
UVM_INFO ./../seq/per_seq.sv(36) @ 406741000: uvm_test_top.env.agt.seqr@@seq [body] Programming addr: 00000014 
UVM_INFO ./../seq/per_seq.sv(39) @ 406801000: uvm_test_top.env.agt.seqr@@seq [body] Programming Align=2  Addr=0000002c DutyCycle=1072  Channel=          7
UVM_INFO ./../seq/per_seq.sv(36) @ 406861000: uvm_test_top.env.agt.seqr@@seq [body] Programming addr: 0000001b 
UVM_INFO ./../seq/per_seq.sv(39) @ 406921000: uvm_test_top.env.agt.seqr@@seq [body] Programming Align=2  Addr=00000032 DutyCycle= 640  Channel=          8
UVM_INFO ./../seq/per_seq.sv(36) @ 406981000: uvm_test_top.env.agt.seqr@@seq [body] Programming addr: 0000001a 
UVM_INFO ./../seq/per_seq.sv(39) @ 407041000: uvm_test_top.env.agt.seqr@@seq [body] Programming Align=1  Addr=00000030 DutyCycle=1151  Channel=          9
UVM_INFO ./../seq/per_seq.sv(36) @ 407101000: uvm_test_top.env.agt.seqr@@seq [body] Programming addr: 00000019 
UVM_INFO ./../seq/per_seq.sv(39) @ 407161000: uvm_test_top.env.agt.seqr@@seq [body] Programming Align=1  Addr=00000036 DutyCycle=   3  Channel=         10
UVM_INFO ./../seq/per_seq.sv(36) @ 407221000: uvm_test_top.env.agt.seqr@@seq [body] Programming addr: 00000018 
UVM_INFO ./../seq/per_seq.sv(39) @ 407281000: uvm_test_top.env.agt.seqr@@seq [body] Programming Align=1  Addr=00000034 DutyCycle=1366  Channel=         11
UVM_INFO ./../seq/per_seq.sv(29) @ 604481000: uvm_test_top.env.agt.seqr@@seq [body] Programming Period=432  Per_scale=1
UVM_INFO ./../seq/per_seq.sv(36) @ 604641000: uvm_test_top.env.agt.seqr@@seq [body] Programming addr: 00000013 
UVM_INFO ./../seq/per_seq.sv(39) @ 604701000: uvm_test_top.env.agt.seqr@@seq [body] Programming Align=2  Addr=00000022 DutyCycle=  44  Channel=          0
UVM_INFO ./../seq/per_seq.sv(36) @ 604761000: uvm_test_top.env.agt.seqr@@seq [body] Programming addr: 00000012 
UVM_INFO ./../seq/per_seq.sv(39) @ 604821000: uvm_test_top.env.agt.seqr@@seq [body] Programming Align=2  Addr=00000020 DutyCycle= 546  Channel=          1
UVM_INFO ./../seq/per_seq.sv(36) @ 604881000: uvm_test_top.env.agt.seqr@@seq [body] Programming addr: 00000011 
UVM_INFO ./../seq/per_seq.sv(39) @ 604941000: uvm_test_top.env.agt.seqr@@seq [body] Programming Align=2  Addr=00000026 DutyCycle= 908  Channel=          2
UVM_INFO ./../seq/per_seq.sv(36) @ 605001000: uvm_test_top.env.agt.seqr@@seq [body] Programming addr: 00000010 
UVM_INFO ./../seq/per_seq.sv(39) @ 605061000: uvm_test_top.env.agt.seqr@@seq [body] Programming Align=1  Addr=00000024 DutyCycle= 409  Channel=          3
UVM_INFO ./../seq/per_seq.sv(36) @ 605121000: uvm_test_top.env.agt.seqr@@seq [body] Programming addr: 00000017 
UVM_INFO ./../seq/per_seq.sv(39) @ 605181000: uvm_test_top.env.agt.seqr@@seq [body] Programming Align=2  Addr=0000002a DutyCycle= 288  Channel=          4
UVM_INFO ./../seq/per_seq.sv(36) @ 605241000: uvm_test_top.env.agt.seqr@@seq [body] Programming addr: 00000016 
UVM_INFO ./../seq/per_seq.sv(39) @ 605301000: uvm_test_top.env.agt.seqr@@seq [body] Programming Align=2  Addr=00000028 DutyCycle= 749  Channel=          5
UVM_INFO ./../seq/per_seq.sv(36) @ 605361000: uvm_test_top.env.agt.seqr@@seq [body] Programming addr: 00000015 
