ALU2/output.vcd
$date
	Sun Apr 26 20:09:41 2020
$end

$version
	Synopsys VCS version I-2014.03-2
$end

$timescale
	1ns
$end

$comment Csum: 1 c1aff5d6070753c4 $end


$scope module top $end
$var reg 1 ! clk $end
$var reg 1 " rst $end

$scope begin unnamed$$_4 $end
$upscope $end


$scope begin unnamed$$_5 $end
$upscope $end


$scope begin unnamed$$_6 $end
$upscope $end


$scope begin unnamed$$_8 $end

$scope begin unnamed$$_7 $end
$upscope $end

$upscope $end


$scope begin unnamed$$_9 $end
$upscope $end


$scope module vif $end
$var reg 1 # clk $end
$var reg 1 $ rst $end
$var reg 8 % a [7:0] $end
$var reg 8 & b [7:0] $end
$var reg 1 ' ci $end
$var reg 1 ( pushin $end
$var reg 1 ) stopout $end
$var reg 8 * z [7:0] $end
$var reg 1 + cout $end
$var reg 1 , pushout $end
$var reg 1 - stopin $end
$var reg 2 . ctl [1:0] $end
$upscope $end


$scope module DUT $end
$upscope $end

$upscope $end

$enddefinitions $end

#0
$dumpvars
x!
x"
0-
0,
0+
0)
0(
0'
1$
0#
b00 .
b00000000 *
b00000000 &
b00000000 %
$end
#5
1#
#10
0#
#15
1#
#20
0#
#25
1#
#30
0#
#35
1#
#40
0#
#45
1#
#50
0#
#55
1#
#60
0#
#65
1#
#70
0#
#75
1#
#80
0#
#85
1#
#90
0#
#95
1#
#100
0$
0#
#105
1#
#106
b00010001 %
b01011001 &
1(
#110
0#
#115
1#
#116
1,
b00000001 %
b00110101 &
1'
b01 .
b00010001 *
#120
0#
#125
1#
#126
b10101111 %
b00011111 &
0'
b00 .
b00110110 *
#130
0#
#135
1#
#136
b10000111 %
b11111011 &
1'
b10101111 *
#140
0#
#145
1#
#146
b01101011 %
b01110101 &
0'
b10000111 *
#150
0#
#155
1#
#156
b11111110 %
1'
b01101011 *
#160
0#
#165
1#
#166
b10011000 %
b11100001 &
b11111110 *
#170
0#
#175
1#
#176
b10101101 %
b11110010 &
0'
b10011000 *
#180
0#
#185
1#
#186
b01100110 %
b10000001 &
b10101101 *
#190
0#
#195
1#
#196
b01100011 %
b10011010 &
1'
b01100110 *
#200
0#
#205
1#
#206
b00100110 %
b01001111 &
0'
b01100011 *
#210
0#
#215
1#
#216
b00101100 %
b01100011 &
b00100110 *
#220
0#
#225
1#
#226
b10111010 %
b01000110 &
b00101100 *
#230
0#
#235
1#
#236
b00100010 %
b11100011 &
1'
b10111010 *
#240
0#
#245
1#
#246
b11111111 %
b00011100 &
0'
b00100010 *
#250
0#
#255
1#
#256
b00011010 %
b11010100 &
1'
b11111111 *
#260
0#
#265
1#
#266
b10011100 %
b10101001 &
b00011010 *
#270
0#
#275
1#
#276
b11111100 %
b01001001 &
b10011100 *
#280
0#
#285
1#
#286
b00111001 %
b01101010 &
0'
b11111100 *
#290
0#
#295
1#
#296
b11011100 %
b10101100 &
1'
b00111001 *
#300
0#
#305
1#
#306
b11101100 %
b01000011 &
b11011100 *
#310
0#
#315
1#
#316
b01011110 %
b01100100 &
b11101100 *
#320
0#
#325
1#
#326
b00110101 %
b00010010 &
0'
b01011110 *
#330
0#
#335
1#
#336
b10011111 %
b00110101 &
b00110101 *
#340
0#
#345
1#
#346
b00000101 %
b01001111 &
1'
b10011111 *
#350
0#
#355
1#
#356
b10101010 %
b00000011 &
b00000101 *
#360
0#
#365
1#
#366
b11000110 %
b11000011 &
b10101010 *
#370
0#
#375
1#
#376
b11110100 %
b10101010 &
0'
b11000110 *
#380
0#
#385
1#
#386
b00001011 %
1'
b11110100 *
#390
0#
#395
1#
#396
b00101000 %
b11111000 &
0'
b00001011 *
#400
0#
#405
1#
#406
b10010101 %
b10100001 &
1'
b00101000 *
#410
0#
#415
1#
#416
b11001000 %
b10000110 &
0'
b10010101 *
#420
0#
#425
1#
#426
b10001001 %
b01011001 &
b11001000 *
#430
0#
#435
1#
#436
b01111101 %
b11000100 &
b10001001 *
#440
0#
#445
1#
#446
b11111001 %
b01001100 &
b01111101 *
#450
0#
#455
1#
#456
b00110101 %
b00111101 &
1'
b11111001 *
#460
0#
#465
1#
#466
b10100001 %
b10101010 &
b00110101 *
#470
0#
#475
1#
#476
b01100000 %
b00110111 &
b10100001 *
#480
0#
#485
1#
#486
b11011111 %
b11010101 &
b01100000 *
#490
0#
#495
1#
#496
b10011001 %
b11000110 &
0'
b11011111 *
#500
0#
#505
1#
#506
b00011111 %
b01001111 &
1'
b10011001 *
#510
0#
#515
1#
#516
b00000101 %
b00100010 &
0'
b00011111 *
#520
0#
#525
1#
#526
b11010011 %
b01100111 &
1'
b00000101 *
#530
0#
#535
1#
#536
b00011010 %
b10101100 &
b11010011 *
#540
0#
#545
1#
#546
b11111111 %
b00111110 &
b00011010 *
#550
0#
#555
1#
#556
b00101111 %
b11000000 &
b11111111 *
#560
0#
#565
1#
#566
b11100101 %
b11011000 &
0'
b00101111 *
#570
0#
#575
1#
#576
b10001010 %
b11100111 &
b11100101 *
#580
0#
#585
1#
#586
b11000100 %
b01111011 &
b10001010 *
#590
0#
#595
1#
#596
b01011010 %
b01001010 &
b11000100 *
#600
0#
#605
1#
#606
b00001101 %
b01001011 &
1'
b01011010 *
#610
0#
#615
1#
#616
b01011110 %
b11101111 &
b00001101 *
#620
0#
#625
1#
#626
b01000100 %
b01100111 &
b01011110 *
#630
0#
#635
1#
#636
b01011111 %
b10100011 &
0'
b01000100 *
#640
0#
#645
1#
#646
b10100000 %
b00011000 &
1'
b01011111 *
#650
0#
#655
1#
#656
b11110010 %
b00111110 &
0'
b10100000 *
#660
0#
#665
1#
#666
b10001101 %
b00100110 &
1'
b11110010 *
#670
0#
#675
1#
#676
b11111011 %
b00100100 &
b10001101 *
#680
0#
#685
1#
#686
b01101101 %
b10011110 &
b11111011 *
#690
0#
#695
1#
#696
b11010111 %
b01011100 &
0'
b01101101 *
#700
0#
#705
1#
#706
b10010010 %
b11101010 &
1'
b11010111 *
#710
0#
#715
1#
#716
b01010011 %
b11010100 &
b10010010 *
#720
0#
#725
1#
#726
b11010001 %
b10001010 &
0'
b01010011 *
#730
0#
#735
1#
#736
b11011101 %
b11110110 &
1'
b11010001 *
#740
0#
#745
1#
#746
b00110001 %
b00101111 &
b11011101 *
#750
0#
#755
1#
#756
b01001001 %
b11011111 &
b00110001 *
#760
0#
#765
1#
#766
b10011000 %
b00101001 &
b01001001 *
#770
0#
#775
1#
#776
b00100111 %
b00010011 &
0'
b10011000 *
#780
0#
#785
1#
#786
b11010010 %
b00011101 &
1'
b00100111 *
#790
0#
#795
1#
#796
b01001100 %
b11001111 &
0'
b11010010 *
#800
0#
#805
1#
#806
b01011100 %
b00011101 &
b01001100 *
#810
0#
#815
1#
#816
b10010010 %
b11111010 &
1'
b01011100 *
#820
0#
#825
1#
#826
b00001110 %
b10110110 &
0'
b10010010 *
#830
0#
#835
1#
#836
b00101000 %
b01000001 &
b00001110 *
#840
0#
#845
1#
#846
b00000101 %
b11100101 &
b00101000 *
#850
0#
#855
1#
#856
b10000101 %
b01010110 &
b00000101 *
#860
0#
#865
1#
#866
b01010101 %
b01011101 &
b10000101 *
#870
0#
#875
1#
#876
b01010001 %
b11000010 &
b01010101 *
#880
0#
#885
1#
#886
b10000001 %
b10101100 &
1'
b01010001 *
#890
0#
#895
1#
#896
b11110010 %
b01001000 &
b10000001 *
#900
0#
#905
1#
#906
b10001011 %
b10000101 &
b11110010 *
#910
0#
#915
1#
#916
b01111001 %
b01101000 &
0'
b10001011 *
#920
0#
#925
1#
#926
b10000010 %
b01000011 &
1'
b01111001 *
#930
0#
#935
1#
#936
b00010010 %
b11111001 &
b10000010 *
#940
0#
#945
1#
#946
b01011001 %
b11111011 &
0'
b00010010 *
#950
0#
#955
1#
#956
b10010101 %
b01010000 &
b01011001 *
#960
0#
#965
1#
#966
b10001111 %
b10100111 &
1'
b10010101 *
#970
0#
#975
1#
#976
b00011101 %
b01011001 &
0'
b10001111 *
#980
0#
#985
1#
#986
b01110011 %
b00001100 &
b00011101 *
#990
0#
#995
1#
#996
b10110011 %
b00101001 &
1'
b01110011 *
#1000
0#
#1005
1#
#1006
b01110011 %
b10000011 &
b10110011 *
#1010
0#
#1015
1#
#1016
b01110000 %
b10101111 &
b01110011 *
#1020
0#
#1025
1#
#1026
b11011110 %
b01110001 &
b01110000 *
#1030
0#
#1035
1#
#1036
b01100101 %
b11000010 &
b11011110 *
#1040
0#
#1045
1#
#1046
b01110101 %
b11011001 &
0'
b01100101 *
#1050
0#
#1055
1#
#1056
b11101011 %
b10111011 &
1'
b01110101 *
#1060
0#
#1065
1#
#1066
b11100110 %
b01001001 &
0'
b11101011 *
#1070
0#
#1075
1#
#1076
b11110010 %
b00000100 &
1'
b11100110 *
#1080
0#
#1085
1#
#1086
b11001111 %
b11100111 &
0'
b11110010 *
#1090
0#
#1095
1#
#1096
b01000001 %
b10001110 &
1'
b11001111 *
#1100
0#
#1105
1#
#1106
b11001101 %
b01101101 &
b01000001 *
#1110
0#
#1115
1#
#1116
b11001100 %
b00001101 &
0'
b11001101 *
#1120
0#
#1125
1#
#1126
b00101110 %
b11100010 &
b11001100 *
#1130
0#
#1135
1#
#1136
b10110100 %
b00000011 &
b00101110 *
#1140
0#
#1145
1#
#1146
b00011101 %
b11100001 &
1'
b10110100 *
#1150
0#
#1155
1#
#1156
b10111101 %
b11001001 &
b00011101 *
#1160
0#
#1165
1#
#1166
b10111100 %
b01111110 &
b10111101 *
#1170
0#
#1175
1#
#1176
b00111110 %
b00011110 &
0'
b10111100 *
#1180
0#
#1185
1#
#1186
b00000011 %
b00000010 &
1'
b00111110 *
#1190
0#
#1195
1#
#1196
b00011010 %
b01001100 &
b00000011 *
#1200
0#
#1205
1#
#1206
b00100100 %
b01101001 &
0'
b00011010 *
#1210
0#
#1215
1#
#1216
b00000111 %
b11000101 &
1'
b00100100 *
#1220
0#
#1225
1#
#1226
b11111101 &
b00000111 *
#1230
0#
#1235
1#
#1236
b11101100 %
b01111100 &
#1240
0#
#1245
1#
#1246
b01010000 %
b01000011 &
b11101100 *
#1250
0#
#1255
1#
#1256
b10101111 %
b00010001 &
b01010000 *
#1260
0#
#1265
1#
#1266
b01101110 %
b00100101 &
b10101111 *
#1270
0#
#1275
1#
#1276
b11000111 %
b10010010 &
0'
b01101110 *
#1280
0#
#1285
1#
#1286
b00011000 %
b10001011 &
b11000111 *
#1290
0#
#1295
1#
#1296
b11110011 %
b11100101 &
1'
b00011000 *
#1300
0#
#1305
1#
#1306
b01110010 %
b10110000 &
0'
b11110011 *
#1310
0#
#1315
1#
#1316
b01110001 %
b00111111 &
b01110010 *
#1320
0#
#1325
1#
#1326
b11001001 %
b10100011 &
1'
b01110001 *
#1330
0#
#1335
1#
#1336
b01110001 %
b01111111 &
0'
b11001001 *
#1340
0#
#1345
1#
#1346
b00000110 %
b01011011 &
b01110001 *
#1350
0#
#1355
1#
#1356
b11100100 %
b10011100 &
1'
b00000110 *
#1360
0#
#1365
1#
#1366
b00111110 %
b11111101 &
0'
b11100100 *
#1370
0#
#1375
1#
#1376
b11111101 %
b10111111 &
1'
b00111110 *
#1380
0#
#1385
1#
#1386
b01111100 %
b10000011 &
0'
b11111101 *
#1390
0#
#1395
1#
#1396
b01111101 %
b10110000 &
1'
b01111100 *
#1400
0#
#1405
1#
#1406
b00010011 %
b11010110 &
0'
b01111101 *
#1410
0#
#1415
1#
#1416
b11111110 %
b11000100 &
1'
b00010011 *
#1420
0#
#1425
1#
#1426
b01100100 %
b11100001 &
0'
b11111110 *
#1430
0#
#1435
1#
#1436
b01010111 %
b01101110 &
b01100100 *
#1440
0#
#1445
1#
#1446
b00000101 %
b10100101 &
1'
b01010111 *
#1450
0#
#1455
1#
#1456
b10101100 %
b10001011 &
0'
b00000101 *
#1460
0#
#1465
1#
#1466
b11101110 %
b00010010 &
b10101100 *
#1470
0#
#1475
1#
#1476
b00011011 %
b00000001 &
b11101110 *
#1480
0#
#1485
1#
#1486
b10011010 %
b10100110 &
1'
b00011011 *
#1490
0#
#1495
1#
#1496
b00111110 %
b10000111 &
b10011010 *
#1500
0#
#1505
1#
#1506
b10101001 %
b11011001 &
0'
b00111110 *
#1510
0#
#1515
1#
#1516
b00110111 %
b11011111 &
1'
b10101001 *
#1520
0#
#1525
1#
#1526
b10101010 %
b11110101 &
b00110111 *
#1530
0#
#1535
1#
#1536
b10110100 %
b00100111 &
0'
b10101010 *
#1540
0#
#1545
1#
#1546
b10011101 %
b10011010 &
1'
b10110100 *
#1550
0#
#1555
1#
#1556
b11110100 %
b01100010 &
b10011101 *
#1560
0#
#1565
1#
#1566
b01100011 %
b01011001 &
b11110100 *
#1570
0#
#1575
1#
#1576
b10110110 %
b11001111 &
0'
b01100011 *
#1580
0#
#1585
1#
#1586
b11111100 %
b00001100 &
b10110110 *
#1590
0#
#1595
1#
#1596
b11001010 %
b10010111 &
1'
b11111100 *
#1600
0#
#1605
1#
#1606
b11100111 %
b01010111 &
0'
b11001010 *
#1610
0#
#1615
1#
#1616
b00000110 %
b10011101 &
1'
b11100111 *
#1620
0#
#1625
1#
#1626
b11110110 %
b11011100 &
0'
b00000110 *
#1630
0#
#1635
1#
#1636
b01111111 %
b01000101 &
b11110110 *
#1640
0#
#1645
1#
#1646
b11011110 %
b00001101 &
b01111111 *
#1650
0#
#1655
1#
#1656
b00111010 %
b11111010 &
b11011110 *
#1660
0#
#1665
1#
#1666
b10110101 %
b10100101 &
b00111010 *
#1670
0#
#1675
1#
#1676
b01000101 %
b01110111 &
1'
b10110101 *
#1680
0#
#1685
1#
#1686
b01010111 %
b01101010 &
b01000101 *
#1690
0#
#1695
1#
#1696
b00000000 %
b11100111 &
b01010111 *
#1700
0#
#1705
1#
#1706
b10000111 %
b10111101 &
b00000000 *
#1710
0#
#1715
1#
#1716
b00110111 %
b00101110 &
b10000111 *
#1720
0#
#1725
1#
#1726
b01000010 %
b11110100 &
b00110111 *
#1730
0#
#1735
1#
#1736
b01110000 %
b00100000 &
b01000010 *
#1740
0#
#1745
1#
#1746
b11100110 %
b10110110 &
b01110000 *
#1750
0#
#1755
1#
#1756
b01001001 %
b10011000 &
b11100110 *
#1760
0#
#1765
1#
#1766
b11010011 %
b10100110 &
b01001001 *
#1770
0#
#1775
1#
#1776
b00001000 %
b01010000 &
0'
b11010011 *
#1780
0#
#1785
1#
#1786
b10010001 %
b10010010 &
1'
b00001000 *
#1790
0#
#1795
1#
#1796
b00111010 %
b11011001 &
0'
b10010001 *
#1800
0#
#1805
1#
#1806
b10001011 %
b11111010 &
1'
b00111010 *
#1810
0#
#1815
1#
#1816
b01001101 %
b11101000 &
b10001011 *
#1820
0#
#1825
1#
#1826
b01001111 %
b00011100 &
b01001101 *
#1830
0#
#1835
1#
#1836
b10011110 %
b10111111 &
0'
b01001111 *
#1840
0#
#1845
1#
#1846
b00011100 %
b01100001 &
1'
b10011110 *
#1850
0#
#1855
1#
#1856
b10111001 %
b10011111 &
b00011100 *
#1860
0#
#1865
1#
#1866
b01100011 %
b10100001 &
b10111001 *
#1870
0#
#1875
1#
#1876
b01101110 %
b00000001 &
b01100011 *
#1880
0#
#1885
1#
#1886
b11100010 %
b01101111 &
b01101110 *
#1890
0#
#1895
1#
#1896
b00100000 %
0'
b11100010 *
#1900
0#
#1905
1#
#1906
b01111101 %
b11001011 &
1'
b00100000 *
#1910
0#
#1915
1#
#1916
b10101111 %
b01110110 &
b01111101 *
#1920
0#
#1925
1#
#1926
b10111110 %
b10101001 &
b10101111 *
#1930
0#
#1935
1#
#1936
b10010110 %
b11101101 &
b10111110 *
#1940
0#
#1945
1#
#1946
b00010011 %
b01000100 &
b10010110 *
#1950
0#
#1955
1#
#1956
b01001110 %
b00101011 &
b00010011 *
#1960
0#
#1965
1#
#1966
b11001101 %
b01011101 &
b01001110 *
#1970
0#
#1975
1#
#1976
b00101101 %
b01000011 &
b11001101 *
#1980
0#
#1985
1#
#1986
b00011110 %
b01010100 &
0'
b00101101 *
#1990
0#
#1995
1#
#1996
b11001110 %
b00011111 &
1'
b00011110 *
#2000
0#
#2005
1#
#2006
b00100001 %
b01111001 &
0'
b11001110 *
#2010
0#
#2015
1#
#2016
b01111011 %
b11000100 &
b00100001 *
#2020
0#
#2025
1#
#2026
b00101101 %
b01000011 &
b01111011 *
#2030
0#
#2035
1#
#2036
b11011011 %
b00010110 &
1'
b00101101 *
#2040
0#
#2045
1#
#2046
b11100001 %
b11110110 &
b11011011 *
#2050
0#
#2055
1#
#2056
b10110011 %
b11100011 &
0'
b11100001 *
#2060
0#
#2065
1#
#2066
b10111101 %
b01001110 &
1'
b10110011 *
#2070
0#
#2075
1#
#2076
b11111100 %
b11000111 &
0'
b10111101 *
#2080
0#
#2085
1#
#2086
b01110100 %
b00100111 &
1'
b11111100 *
#2090
0#
#2095
1#
#2096
b10001101 %
b00000001 &
0'
b01110100 *
#2100
0#
#2105
1#
#2106
b01010110 %
b11001001 &
b10001101 *
#2110
0#
#2115
1#
#2116
b01000111 %
b11010100 &
b01010110 *
#2120
0#
#2125
1#
#2126
b11110110 %
b11000001 &
1'
b01000111 *
#2130
0#
#2135
1#
#2136
b11101111 %
b10110100 &
0'
b11110110 *
#2140
0#
#2145
1#
#2146
b01100011 %
b10101010 &
b11101111 *
#2150
0#
#2155
1#
#2156
b00100110 %
b00000110 &
1'
b01100011 *
#2160
0#
#2165
1#
#2166
b10100011 %
b00100001 &
b00100110 *
#2170
0#
#2175
1#
#2176
b01010000 %
b11010011 &
0'
b10100011 *
#2180
0#
#2185
1#
#2186
b01010101 %
b11000111 &
b01010000 *
#2190
0#
#2195
1#
#2196
b01001101 %
b10011101 &
1'
b01010101 *
#2200
0#
#2205
1#
#2206
b11011011 %
b11111101 &
b01001101 *
#2210
0#
#2215
1#
#2216
b11101110 %
b01011111 &
0'
b11011011 *
#2220
0#
#2225
1#
#2226
b00100011 %
b00101111 &
1'
b11101110 *
#2230
0#
#2235
1#
#2236
b01110011 %
b10001100 &
0'
b00100011 *
#2240
0#
#2245
1#
#2246
b01100100 %
b11101001 &
1'
b01110011 *
#2250
0#
#2255
1#
#2256
b01100001 %
b01001001 &
0'
b01100100 *
#2260
0#
#2265
1#
#2266
b00001110 %
b10101001 &
1'
b01100001 *
#2270
0#
#2275
1#
#2276
b01110100 %
b11110111 &
b00001110 *
#2280
0#
#2285
1#
#2286
b01000010 %
b11100111 &
b01110100 *
#2290
0#
#2295
1#
#2296
b01001100 %
b00111111 &
0'
b01000010 *
#2300
0#
#2305
1#
#2306
b01101010 %
b10001001 &
1'
b01001100 *
#2310
0#
#2315
1#
#2316
b01000010 %
b11011100 &
b01101010 *
#2320
0#
#2325
1#
#2326
b01100111 %
b11001100 &
b01000010 *
#2330
0#
#2335
1#
#2336
b10000000 %
b00100100 &
0'
b01100111 *
#2340
0#
#2345
1#
#2346
b10010101 %
b10100011 &
b10000000 *
#2350
0#
#2355
1#
#2356
b11101111 %
b10100010 &
1'
b10010101 *
#2360
0#
#2365
1#
#2366
b01100011 %
b10000110 &
0'
b11101111 *
#2370
0#
#2375
1#
#2376
b00011111 %
b10110011 &
b01100011 *
#2380
0#
#2385
1#
#2386
b10110010 %
b11011100 &
1'
b00011111 *
#2390
0#
#2395
1#
#2396
b00011000 %
b00111010 &
0'
b10110010 *
#2400
0#
#2405
1#
#2406
b11101010 %
b10010001 &
b00011000 *
#2410
0#
#2415
1#
#2416
b00111111 %
b10010101 &
b11101010 *
#2420
0#
#2425
1#
#2426
b00011101 %
b11111100 &
1'
b00111111 *
#2430
0#
#2435
1#
#2436
b10011101 %
b11100111 &
0'
b00011101 *
#2440
0#
#2445
1#
#2446
b00001110 %
b10111011 &
1'
b10011101 *
#2450
0#
#2455
1#
#2456
b00101100 %
b00111110 &
b00001110 *
#2460
0#
#2465
1#
#2466
b00111000 %
b01111001 &
b00101100 *
#2470
0#
#2475
1#
#2476
b10101010 %
b11100010 &
b00111000 *
#2480
0#
#2485
1#
#2486
b00000000 %
b00010101 &
b10101010 *
#2490
0#
#2495
1#
#2496
b10001110 %
b00110001 &
0'
b00000000 *
#2500
0#
#2505
1#
#2506
b01111000 %
b01011000 &
1'
b10001110 *
#2510
0#
#2515
1#
#2516
b00010100 %
b11110001 &
b01111000 *
#2520
0#
#2525
1#
#2526
b11010001 %
b01101111 &
b00010100 *
#2530
0#
#2535
1#
#2536
b00111111 %
b10011011 &
0'
b11010001 *
#2540
0#
#2545
1#
#2546
b11011010 %
b01100111 &
1'
b00111111 *
#2550
0#
#2555
1#
#2556
b10100111 %
b01111111 &
b11011010 *
#2560
0#
#2565
1#
#2566
b11010011 %
b10010001 &
b10100111 *
#2570
0#
#2575
1#
#2576
b01110000 %
b00011000 &
b11010011 *
#2580
0#
#2585
1#
#2586
b01101111 %
b10110010 &
b01110000 *
#2590
0#
#2595
1#
#2596
b01001010 %
b01010000 &
b01101111 *
#2600
0#
#2605
1#
#2606
b10100010 %
b10010001 &
b01001010 *
#2610
0#
#2615
1#
#2616
b00000000 %
b00111011 &
b10100010 *
#2620
0#
#2625
1#
#2626
b01101011 %
b11010101 &
0'
b00000000 *
#2630
0#
#2635
1#
#2636
b11111101 %
b01001100 &
1'
b01101011 *
#2640
0#
#2645
1#
#2646
b00111101 %
b11100000 &
0'
b11111101 *
#2650
0#
#2655
1#
#2656
b10001010 %
b11000010 &
b00111101 *
#2660
0#
#2665
1#
#2666
b11001100 %
b00101001 &
b10001010 *
#2670
0#
#2675
1#
#2676
b10010001 %
b01011000 &
b11001100 *
#2680
0#
#2685
1#
#2686
b01000110 %
b01011110 &
1'
b10010001 *
#2690
0#
#2695
1#
#2696
b00101101 %
b11100001 &
b01000110 *
#2700
0#
#2705
1#
#2706
b10111011 %
b11000001 &
b00101101 *
#2710
0#
#2715
1#
#2716
b01011111 %
b01000001 &
b10111011 *
#2720
0#
#2725
1#
#2726
b00001101 %
b00011011 &
0'
b01011111 *
#2730
0#
#2735
1#
#2736
b00000000 %
b00001101 &
1'
b00001101 *
#2740
0#
#2745
1#
#2746
b10100001 %
b10100110 &
0'
b00000000 *
#2750
0#
#2755
1#
#2756
b10010111 %
b10000011 &
1'
b10100001 *
#2760
0#
#2765
1#
#2766
b00010101 %
b00100100 &
b10010111 *
#2770
0#
#2775
1#
#2776
b10010111 %
b11011101 &
b00010101 *
#2780
0#
#2785
1#
#2786
b10000100 %
b10111010 &
b10010111 *
#2790
0#
#2795
1#
#2796
b11110100 %
b11111111 &
0'
b10000100 *
#2800
0#
#2805
1#
#2806
b00000001 %
b01110100 &
1'
b11110100 *
#2810
0#
#2815
1#
#2816
b00110011 %
b11011001 &
b00000001 *
#2820
0#
#2825
1#
#2826
b10101101 %
b01001000 &
b00110011 *
#2830
0#
#2835
1#
#2836
b10110001 %
b10000100 &
b10101101 *
#2840
0#
#2845
1#
#2846
b00000111 %
b11010100 &
0'
b10110001 *
#2850
0#
#2855
1#
#2856
b00001001 %
b10110101 &
b00000111 *
#2860
0#
#2865
1#
#2866
b10011111 %
b00110110 &
1'
b00001001 *
#2870
0#
#2875
1#
#2876
b11110011 %
b11110010 &
b10011111 *
#2880
0#
#2885
1#
#2886
b11101111 %
b00110110 &
0'
b11110011 *
#2890
0#
#2895
1#
#2896
b00111011 %
b11110000 &
b11101111 *
#2900
0#
#2905
1#
#2906
b01010101 %
b10100011 &
1'
b00111011 *
#2910
0#
#2915
1#
#2916
b01001111 %
b10111100 &
0'
b01010101 *
#2920
0#
#2925
1#
#2926
b00010100 %
b01000101 &
1'
b01001111 *
#2930
0#
#2935
1#
#2936
b01110100 %
b00100000 &
b00010100 *
#2940
0#
#2945
1#
#2946
b10001011 %
b11011001 &
0'
b01110100 *
#2950
0#
#2955
1#
#2956
b11101010 %
b11111011 &
1'
b10001011 *
#2960
0#
#2965
1#
#2966
b00100000 %
b11000110 &
b11101010 *
#2970
0#
#2975
1#
#2976
b10111000 %
b10001001 &
b00100000 *
#2980
0#
#2985
1#
#2986
b01110110 %
b10100111 &
b10111000 *
#2990
0#
#2995
1#
#2996
b11000011 %
b10000100 &
0'
b01110110 *
#3000
0#
#3005
1#
#3006
b01010101 %
b11110000 &
b11000011 *
#3010
0#
#3015
1#
#3016
b01001101 %
b00001100 &
1'
b01010101 *
#3020
0#
#3025
1#
#3026
b11110111 %
b01001010 &
b01001101 *
#3030
0#
#3035
1#
#3036
b10110000 %
b00011100 &
b11110111 *
#3040
0#
#3045
1#
#3046
b01100011 %
b11000111 &
b10110000 *
#3050
0#
#3055
1#
#3056
b01100100 %
b00010101 &
b01100011 *
#3060
0#
#3065
1#
#3066
b10000000 %
b00011100 &
0'
b01100100 *
#3070
0#
#3075
1#
#3076
b00001001 %
b00101110 &
1'
b10000000 *
#3080
0#
#3085
1#
#3086
b00000000 %
b10010000 &
0'
b00001001 *
#3090
0#
#3095
1#
#3096
b00010001 %
b01110011 &
1'
b00000000 *
#3100
0#
#3105
1#
#3106
b11111011 %
b11100000 &
0'
b00010001 *
#3110
0#
#3115
1#
#3116
b10101100 %
b10100101 &
b11111011 *
#3120
0#
#3125
1#
#3126
b11100010 %
b10110011 &
b10101100 *
#3130
0#
#3135
1#
#3136
b11011000 %
b01110111 &
b11100010 *
#3140
0#
#3145
1#
#3146
b11000110 %
b11111111 &
b11011000 *
#3150
0#
#3155
1#
#3156
b00010101 %
b11011000 &
b11000110 *
#3160
0#
#3165
1#
#3166
b00110011 %
b00000011 &
1'
b00010101 *
#3170
0#
#3175
1#
#3176
b11100111 %
b00100111 &
b00110011 *
#3180
0#
#3185
1#
#3186
b10011000 %
b10010001 &
b11100111 *
#3190
0#
#3195
1#
#3196
b01100010 %
b11001100 &
0'
b10011000 *
#3200
0#
#3205
1#
#3206
b11000001 %
b00001100 &
b01100010 *
#3210
0#
#3215
1#
#3216
b11100011 %
b01100011 &
b11000001 *
#3220
0#
#3225
1#
#3226
b01010110 %
b10111010 &
1'
b11100011 *
#3230
0#
#3235
1#
#3236
b01111001 %
b00010111 &
0'
b01010110 *
#3240
0#
#3245
1#
#3246
b01011000 %
b01111010 &
1'
b01111001 *
#3250
0#
#3255
1#
#3256
b01000111 %
b00111001 &
b01011000 *
#3260
0#
#3265
1#
#3266
b00000010 %
b01110100 &
0'
b01000111 *
#3270
0#
#3275
1#
#3276
b01110110 %
b10111100 &
1'
b00000010 *
#3280
0#
#3285
1#
#3286
b01100011 %
b00110110 &
b01110110 *
#3290
0#
#3295
1#
#3296
b10110101 %
b10111110 &
b01100011 *
#3300
0#
#3305
1#
#3306
b10100110 %
b01001011 &
0'
b10110101 *
#3310
0#
#3315
1#
#3316
b00001000 &
1'
b10100110 *
#3320
0#
#3325
1#
#3326
b00101111 %
b11111000 &
#3330
0#
#3335
1#
#3336
b00011011 %
b11100100 &
b00101111 *
#3340
0#
#3345
1#
#3346
b00110000 %
b01001100 &
b00011011 *
#3350
0#
#3355
1#
#3356
b10110100 %
b01000110 &
b00110000 *
#3360
0#
#3365
1#
#3366
b10001111 %
b10000011 &
b10110100 *
#3370
0#
#3375
1#
#3376
b00010111 %
b10001010 &
0'
b10001111 *
#3380
0#
#3385
1#
#3386
b10101101 %
b01001000 &
b00010111 *
#3390
0#
#3395
1#
#3396
b10110111 %
b11100001 &
b10101101 *
#3400
0#
#3405
1#
#3406
b00101111 %
b01011000 &
b10110111 *
#3410
0#
#3415
1#
#3416
b11010111 %
b00000010 &
b00101111 *
#3420
0#
#3425
1#
#3426
b00110010 %
b01011100 &
1'
b11010111 *
#3430
0#
#3435
1#
#3436
b10011010 %
b00100001 &
0'
b00110010 *
#3440
0#
#3445
1#
#3446
b11011101 %
b10000010 &
1'
b10011010 *
#3450
0#
#3455
1#
#3456
b01010111 %
b10011011 &
0'
b11011101 *
#3460
0#
#3465
1#
#3466
b00010001 %
b10000011 &
b01010111 *
#3470
0#
#3475
1#
#3476
b01001000 %
b01010000 &
1'
b00010001 *
#3480
0#
#3485
1#
#3486
b11110101 %
b11010000 &
b01001000 *
#3490
0#
#3495
1#
#3496
b01101010 %
b11101011 &
0'
b11110101 *
#3500
0#
#3505
1#
#3506
b01001011 %
b11001010 &
1'
b01101010 *
#3510
0#
#3515
1#
#3516
b01010101 %
b10011111 &
b01001011 *
#3520
0#
#3525
1#
#3526
b10011100 %
b00110111 &
0'
b01010101 *
#3530
0#
#3535
1#
#3536
b00100000 %
b10000101 &
b10011100 *
#3540
0#
#3545
1#
#3546
b10011111 %
b11101001 &
1'
b00100000 *
#3550
0#
#3555
1#
#3556
b01100101 %
b10011000 &
b10011111 *
#3560
0#
#3565
1#
#3566
b11001011 %
b11111001 &
b01100101 *
#3570
0#
#3575
1#
#3576
b01010100 %
b00000011 &
b11001011 *
#3580
0#
#3585
1#
#3586
b01010110 %
b11101001 &
0'
b01010100 *
#3590
0#
#3595
1#
#3596
b00010100 %
b11110101 &
1'
b01010110 *
#3600
0#
#3605
1#
#3606
b11010000 %
b01101011 &
0'
b00010100 *
#3610
0#
#3615
1#
#3616
b00111111 %
b10111000 &
1'
b11010000 *
#3620
0#
#3625
1#
#3626
b01100101 %
b01110011 &
0'
b00111111 *
#3630
0#
#3635
1#
#3636
b00111011 %
b01010101 &
b01100101 *
#3640
0#
#3645
1#
#3646
b01001001 %
b00100001 &
1'
b00111011 *
#3650
0#
#3655
1#
#3656
b10000011 %
b10101011 &
0'
b01001001 *
#3660
0#
#3665
1#
#3666
b00111111 %
b00000110 &
1'
b10000011 *
#3670
0#
#3675
1#
#3676
b00111101 %
b01011100 &
b00111111 *
#3680
0#
#3685
1#
#3686
b10010100 %
b11110111 &
0'
b00111101 *
#3690
0#
#3695
1#
#3696
b01100110 %
b00010110 &
1'
b10010100 *
#3700
0#
#3705
1#
